{
    "attributes": {
        "description": "",
        "kibanaSavedObjectMeta": {
            "searchSourceJSON": "{\"index\":\"git_aoc_enriched\",\"query\":{\"query_string\":{\"query\":\"*\",\"analyze_wildcard\":true}},\"filter\":[]}"
        },
        "title": "git_aoc_main_numbers",
        "uiStateJSON": "{}",
        "version": 1,
        "visState": "{\"title\": \"git_aoc_main_numbers\", \"type\": \"metric\", \"params\": {\"handleNoResults\": true, \"fontSize\": \"12\", \"metric\": {\"percentageMode\": false, \"useRanges\": false, \"colorSchema\": \"Green to Red\", \"metricColorMode\": \"None\", \"colorsRange\": [{\"from\": 0, \"to\": 10000}], \"labels\": {\"show\": true}, \"invertColors\": false, \"style\": {\"bgFill\": \"#000\", \"bgColor\": false, \"labelColor\": false, \"subText\": \"\", \"fontSize\": \"12\"}}}, \"aggs\": [{\"id\": \"4\", \"enabled\": true, \"type\": \"count\", \"schema\": \"metric\", \"params\": {\"customLabel\": \"Files\"}}, {\"id\": \"1\", \"enabled\": true, \"type\": \"cardinality\", \"schema\": \"metric\", \"params\": {\"field\": \"author_uuid\", \"customLabel\": \"Authors\"}}, {\"id\": \"2\", \"enabled\": true, \"type\": \"sum\", \"schema\": \"metric\", \"params\": {\"field\": \"addedlines\", \"customLabel\": \"Added Lines\"}}, {\"id\": \"3\", \"enabled\": true, \"type\": \"sum\", \"schema\": \"metric\", \"params\": {\"field\": \"removedlines\", \"customLabel\": \"Removed Lines\"}}], \"listeners\": {}}"
    },
    "id": "git_aoc_main_numbers",
    "type": "visualization",
    "updated_at": "2019-07-10T10:22:00.019Z",
    "version": "WzMyLDFd"
}